<?xml version="1.0" encoding="iso-8859-1"?>
<!-- Generator: Adobe Illustrator 19.0.0, SVG Export Plug-In . SVG Version: 6.00 Build 0)  -->
<svg version="1.1" id="Capa_1" xmlns="http://www.w3.org/2000/svg" xmlns:xlink="http://www.w3.org/1999/xlink" x="0px" y="0px"
	 viewBox="0 0 512 512" style="enable-background:new 0 0 512 512;" xml:space="preserve">
<g>
	<g>
		<path d="M407.406,288.207c-21.246-33.327-30.812-67.672-29.241-104.996c1.375-32.699,11.145-62.508,20.657-87.473
			c7.939-12.939,12.525-28.146,12.525-44.408V0H100.654v51.33c0,16.261,4.587,31.469,12.525,44.408
			c9.513,24.965,19.282,54.774,20.657,87.473c1.57,37.324-7.995,71.669-29.241,104.996
			c-38.521,60.425-37.437,143.667-36.788,193.402c0.072,5.559,0.141,10.809,0.141,15.391v15h376.105v-15
			c0-4.643,0.068-9.941,0.142-15.551C444.838,431.768,445.917,348.615,407.406,288.207z M130.653,51.33V30h0.001h250.693v21.33
			c0,30.423-24.751,55.173-55.174,55.173C295.75,106.503,271,81.753,271,51.33h-30c0,30.423-24.75,55.173-55.173,55.173
			C155.404,106.503,130.653,81.753,130.653,51.33z M163.81,181.95c-0.757-17.992-3.684-34.963-7.674-50.796
			c9.25,3.452,19.252,5.349,29.691,5.349c29.077,0,54.799-14.646,70.173-36.949c15.374,22.303,41.096,36.949,70.173,36.949
			c10.439,0,20.441-1.897,29.691-5.349c-3.989,15.833-6.917,32.804-7.674,50.796c-1.627,38.669,7.417,75.816,26.886,110.615
			l-18.649,5.228c-65.699,18.422-135.155,18.422-200.856,0l-18.648-5.228C156.393,257.766,165.437,220.62,163.81,181.95z
			 M241.001,482H97.815c-0.004-0.26-0.007-0.521-0.011-0.781c-0.227-17.391-0.51-39.175,1-62.399
			c36.239,3.966,88.036,17.717,124.895,33.61c5.583,2.407,11.393,4.136,17.302,5.234V482z M235.576,424.882
			c-39.88-17.196-94.333-31.621-133.776-35.908c3.358-23.987,9.307-48.168,19.707-69.574l25.967,7.28
			c35.504,9.954,72.01,14.93,108.527,14.93c36.51,0,73.031-4.978,108.526-14.93l25.968-7.28
			c10.404,21.412,16.353,45.593,19.708,69.573c-39.443,4.287-93.897,18.713-133.778,35.909
			C263.444,430.48,248.556,430.478,235.576,424.882z M414.197,481.061c-0.004,0.314-0.008,0.627-0.012,0.939H271.001v-24.337
			c5.909-1.098,11.719-2.826,17.303-5.233c36.859-15.893,88.656-29.644,124.895-33.61
			C414.703,441.986,414.422,463.712,414.197,481.061z"/>
	</g>
</g>
<g>
	<g>
		<circle cx="256" cy="269.71" r="15"/>
	</g>
</g>
<g>
</g>
<g>
</g>
<g>
</g>
<g>
</g>
<g>
</g>
<g>
</g>
<g>
</g>
<g>
</g>
<g>
</g>
<g>
</g>
<g>
</g>
<g>
</g>
<g>
</g>
<g>
</g>
<g>
</g>
</svg>
